%YAML 1.1
%TAG !u! tag:unity3d.com,2011:
--- !u!21 &2100000
Material:
  serializedVersion: 6
  m_ObjectHideFlags: 0
  m_CorrespondingSourceObject: {fileID: 0}
  m_PrefabInstance: {fileID: 0}
  m_PrefabAsset: {fileID: 0}
  m_Name: Billboard
  m_Shader: {fileID: 14001, guid: 0000000000000000f000000000000000, type: 0}
  m_ShaderKeywords: EFFECT_BUMP EFFECT_HUE_VARIATION
  m_LightmapFlags: 5
  m_EnableInstancingVariants: 0
  m_DoubleSidedGI: 0
  m_CustomRenderQueue: -1
  stringTagMap: {}
  disabledShaderPasses: []
  m_SavedProperties:
    serializedVersion: 3
    m_TexEnvs:
    - _BumpMap:
        m_Texture: {fileID: 2800000, guid: 19affbb944d5a2f4ca148facd0d991f2, type: 3}
        m_Scale: {x: 1, y: 1}
        m_Offset: {x: 0, y: 0}
    - _MainTex:
        m_Texture: {fileID: 2800000, guid: 059551920335d9b4cbf596ddfc98d964, type: 3}
        m_Scale: {x: 1, y: 1}
        m_Offset: {x: 0, y: 0}
    m_Floats:
    - _Cutoff: 0.33
    - _Shininess: 0.125
    - _WindQuality: 1
    m_Colors:
    - _Color: {r: 1, g: 1, b: 1, a: 1}
    - _HueVariation: {r: 1, g: 0.5, b: 0, a: 0.1}
    - _ImageTexCoords0: {r: 0, g: 0, b: 0, a: 0}
    - _ImageTexCoords1: {r: 0, g: 0, b: 0, a: 0}
    - _ImageTexCoords10: {r: 0, g: 0, b: 0, a: 0}
    - _ImageTexCoords11: {r: 0, g: 0, b: 0, a: 0}
    - _ImageTexCoords12: {r: 0, g: 0, b: 0, a: 0}
    - _ImageTexCoords13: {r: 0, g: 0, b: 0, a: 0}
    - _ImageTexCoords14: {r: 0, g: 0, b: 0, a: 0}
    - _ImageTexCoords15: {r: 0, g: 0, b: 0, a: 0}
    - _ImageTexCoords16: {r: 0, g: 0, b: 0, a: 0}
    - _ImageTexCoords17: {r: 0, g: 0, b: 0, a: 0}
    - _ImageTexCoords18: {r: 0, g: 0, b: 0, a: 0}
    - _ImageTexCoords19: {r: 0, g: 0, b: 0, a: 0}
    - _ImageTexCoords2: {r: 0, g: 0, b: 0, a: 0}
    - _ImageTexCoords20: {r: 0, g: 0, b: 0, a: 0}
    - _ImageTexCoords21: {r: 0, g: 0, b: 0, a: 0}
    - _ImageTexCoords22: {r: 0, g: 0, b: 0, a: 0}
    - _ImageTexCoords23: {r: 0, g: 0, b: 0, a: 0}
    - _ImageTexCoords24: {r: 0, g: 0, b: 0, a: 0}
    - _ImageTexCoords25: {r: 0, g: 0, b: 0, a: 0}
    - _ImageTexCoords26: {r: 0, g: 0, b: 0, a: 0}
    - _ImageTexCoords27: {r: 0, g: 0, b: 0, a: 0}
    - _ImageTexCoords28: {r: 0, g: 0, b: 0, a: 0}
    - _ImageTexCoords29: {r: 0, g: 0, b: 0, a: 0}
    - _ImageTexCoords3: {r: 0, g: 0, b: 0, a: 0}
    - _ImageTexCoords30: {r: 0, g: 0, b: 0, a: 0}
    - _ImageTexCoords31: {r: 0, g: 0, b: 0, a: 0}
    - _ImageTexCoords4: {r: 0, g: 0, b: 0, a: 0}
    - _ImageTexCoords5: {r: 0, g: 0, b: 0, a: 0}
    - _ImageTexCoords6: {r: 0, g: 0, b: 0, a: 0}
    - _ImageTexCoords7: {r: 0, g: 0, b: 0, a: 0}
    - _ImageTexCoords8: {r: 0, g: 0, b: 0, a: 0}
    - _ImageTexCoords9: {r: 0, g: 0, b: 0, a: 0}
    - _SpecColor: {r: 0.5, g: 0.5, b: 0.5, a: 0}
    - _TreeInfo0: {r: 0, g: 0, b: 0, a: 0}
    - _TreeInfo1: {r: 0, g: 0, b: 0, a: 0}
    - _TreeInfo2: {r: 0, g: 0, b: 0, a: 0}
    - _TreeInfo3: {r: 0, g: 0, b: 0, a: 0}
    - _TreeSize0: {r: 0, g: 0, b: 0, a: 0}
    - _TreeSize1: {r: 0, g: 0, b: 0, a: 0}
    - _TreeSize2: {r: 0, g: 0, b: 0, a: 0}
    - _TreeSize3: {r: 0, g: 0, b: 0, a: 0}
