%YAML 1.1
%TAG !u! tag:unity3d.com,2011:
--- !u!1 &2810178586586764991
GameObject:
  m_ObjectHideFlags: 0
  m_CorrespondingSourceObject: {fileID: 0}
  m_PrefabInstance: {fileID: 0}
  m_PrefabAsset: {fileID: 0}
  serializedVersion: 6
  m_Component:
  - component: {fileID: 2810178586586764989}
  - component: {fileID: 2810178586586764988}
  m_Layer: 0
  m_Name: Grass
  m_TagString: Untagged
  m_Icon: {fileID: 0}
  m_NavMeshLayer: 0
  m_StaticEditorFlags: 0
  m_IsActive: 1
--- !u!4 &2810178586586764989
Transform:
  m_ObjectHideFlags: 0
  m_CorrespondingSourceObject: {fileID: 0}
  m_PrefabInstance: {fileID: 0}
  m_PrefabAsset: {fileID: 0}
  m_GameObject: {fileID: 2810178586586764991}
  m_LocalRotation: {x: 0, y: 0, z: 0, w: 1}
  m_LocalPosition: {x: -5.18, y: 0, z: -5.7}
  m_LocalScale: {x: 1, y: 1, z: 1}
  m_Children: []
  m_Father: {fileID: 0}
  m_RootOrder: 0
  m_LocalEulerAnglesHint: {x: 0, y: 0, z: 0}
--- !u!114 &2810178586586764988
MonoBehaviour:
  m_ObjectHideFlags: 0
  m_CorrespondingSourceObject: {fileID: 0}
  m_PrefabInstance: {fileID: 0}
  m_PrefabAsset: {fileID: 0}
  m_GameObject: {fileID: 2810178586586764991}
  m_Enabled: 1
  m_EditorHideFlags: 0
  m_Script: {fileID: 11500000, guid: 5b91f4970bd6b4ce490e72b8f4797b81, type: 3}
  m_Name: 
  m_EditorClassIdentifier: 
  _density: 400
  _extent: {x: 20, y: 20}
  _offset: {x: 0, y: 10}
  _randomPitchAngle: 36.4
  _noisePitchAngle: 5.6
  _rotationNoiseFrequency: 2
  _rotationNoiseSpeed: 0.52
  _rotationNoiseAxis: {x: 1, y: 0, z: 0}
  _baseScale: {x: 1, y: 2, z: 1}
  _minRandomScale: 1.1852436
  _maxRandomScale: 1.4211137
  _scaleNoiseAmplitude: 0.49
  _scaleNoiseFrequency: 0.88
  _shapes:
  - {fileID: 4300002, guid: fc6a34e7a0cb449f5b40f31834051a3b, type: 3}
  - {fileID: 4300004, guid: fc6a34e7a0cb449f5b40f31834051a3b, type: 3}
  _material: {fileID: 2100000, guid: 7711acfb2b5e944dca6694790187339c, type: 2}
  _castShadows: 1
  _receiveShadows: 1
  _defaultMaterial: {fileID: 2100000, guid: 3f215119d17f3496a9a46251be8bb9bc, type: 2}
  _kernelShader: {fileID: 4800000, guid: 1404e2fdeb8d34504b143c592d0817b3, type: 3}
