# This file uses centimeters as units for non-parametric coordinates.

mtllib Branches_Dead.mtl
g default
v 0.004325 -0.001771 0.000284
v 0.232069 0.433651 -1.353672
v -0.299569 0.113590 -1.321686
v -0.309883 -0.439157 -1.308141
v 0.267464 0.278131 -2.372696
v -0.127592 -0.073269 -2.675445
v -0.240528 -0.539985 -2.330018
vt 0.291488 1.003607
vt 0.499352 0.568941
vt 0.293361 0.563635
vt 0.087369 0.558329
vt 0.479004 0.202127
vt 0.302618 0.100705
vt 0.110831 0.192643
vn 0.538378 -0.841072 0.052416
vn 0.805188 -0.545459 -0.232695
vn 0.848305 -0.529386 0.011419
vn 0.997951 -0.063773 0.005114
vn 0.842241 -0.516454 0.154613
vn 0.546280 -0.820948 0.166201
vn 0.990588 -0.080877 0.110425
s 1
g pPlane1
usemtl initialShadingGroup
f 2/2/1 1/1/2 3/3/3
f 1/1/2 4/4/4 3/3/3
f 2/2/1 3/3/3 6/6/5 5/5/6
f 3/3/3 4/4/4 7/7/7 6/6/5
g default
v 0.004583 -0.000000 0.005611
v -0.715689 -0.065412 -1.299478
v 0.073640 0.196174 -1.299478
v 0.719160 -0.065412 -1.299478
v -0.622945 -0.207790 -2.345139
v 0.073640 -0.032432 -2.675250
v 0.721993 -0.207790 -2.345139
vt 0.771024 0.002058
vt 0.588043 0.389292
vt 0.794088 0.389292
vt 1.000132 0.389292
vt 0.615720 0.711947
vt 0.794088 0.797284
vt 0.983987 0.711947
vn -0.313389 0.946643 -0.075193
vn -0.033690 0.988590 0.146817
vn 0.003096 0.998826 -0.048346
vn 0.357997 0.931657 -0.062074
vn -0.003395 0.987464 -0.157810
vn -0.310332 0.937813 -0.155567
vn 0.348953 0.926393 -0.141523
s 1
g pasted__pPlane1 group
usemtl initialShadingGroup
f 9/9/8 8/8/9 10/10/10
f 8/8/9 11/11/11 10/10/10
f 9/9/8 10/10/10 13/13/12 12/12/13
f 10/10/10 11/11/11 14/14/14 13/13/12
